<svg width="20" height="12" viewBox="0 0 20 12" fill="none" xmlns="http://www.w3.org/2000/svg">
<path fill-rule="evenodd" clip-rule="evenodd" d="M8 6C8 4.895 8.895 4 10 4C11.105 4 12 4.895 12 6C12 7.105 11.105 8 10 8C8.895 8 8 7.105 8 6ZM16.343 2C17.972 2 18 2.384 18 3.657L16.343 2ZM16.343 10L18 8.343C18 9.97 17.62 10 16.343 10ZM2 8.343L3.657 10C2.03 10 2 9.62 2 8.343ZM3.657 2L2 3.657C2 2.028 2.384 2 3.657 2ZM13.515 2L17.515 6L13.515 10H6.485L2.485 6L6.485 2H13.515ZM18 0H2C0.895 0 0 0.895 0 2V10C0 11.105 0.895 12 2 12H18C19.105 12 20 11.105 20 10V2C20 0.895 19.105 0 18 0Z" fill="black"/>
</svg>
